ML2 - Time Series
…
##         date  meantemp
## 1 2013-01-01 10.000000
## 2 2013-01-02  7.400000
## 3 2013-01-03  7.166667
## 4 2013-01-04  8.666667
## 5 2013-01-05  6.000000
## 6 2013-01-06  7.000000

Creamos el objeto de serie temporal con la función as_tsibble

temp_train_ts<- as_tsibble(temp_train, index = date)

temp_train_ts

## # A tsibble: 1,461 x 2 [1D]
##    date       meantemp
##    <date>        <dbl>
##  1 2013-01-01    10   
##  2 2013-01-02     7.4 
##  3 2013-01-03     7.17
##  4 2013-01-04     8.67
##  5 2013-01-05     6   
##  6 2013-01-06     7   
##  7 2013-01-07     7   
##  8 2013-01-08     8.86
##  9 2013-01-09    14   
## 10 2013-01-10    11   
## # ... with 1,451 more rows
…
Ahora intentamos comprobar con un test de Ljung-Box que los residuos
están incorrelados a través de un test de autocorrelación.

pvals = autocorrelation_test_plot(aug, dof = 4, m = 7,  h = 5, alpha = 0.05)

## Warning in pchisq(STATISTIC, lag - fitdf): NaNs produced

## Warning in pchisq(STATISTIC, lag - fitdf): NaNs produced

## Warning in pchisq(STATISTIC, lag - fitdf): NaNs produced

pvals

## $values
## # A tibble: 35 x 3
##      lag p_value incorelated
##    <int>   <dbl> <lgl>      
##  1     1 NaN     NA         
##  2     2 NaN     NA         
##  3     3 NaN     NA         
##  4     4   0     FALSE      
##  5     5   0.262 TRUE       
##  6     6   0.530 TRUE       
##  7     7   0.736 TRUE       
##  8     8   0.866 TRUE       
##  9     9   0.278 TRUE       
## 10    10   0.269 TRUE       
## # ... with 25 more rows
## 
## $plot
…
##         date  meantemp
## 1 2013-01-01 10.000000
## 2 2013-01-02  7.400000
## 3 2013-01-03  7.166667
## 4 2013-01-04  8.666667
## 5 2013-01-05  6.000000
## 6 2013-01-06  7.000000

temp_total_ts<- as_tsibble(temp_total, index = date)

temp_total_ts

## # A tsibble: 1,575 x 2 [1D]
##    date       meantemp
##    <date>        <dbl>
##  1 2013-01-01    10   
##  2 2013-01-02     7.4 
##  3 2013-01-03     7.17
##  4 2013-01-04     8.67
##  5 2013-01-05     6   
##  6 2013-01-06     7   
##  7 2013-01-07     7   
##  8 2013-01-08     8.86
##  9 2013-01-09    14   
## 10 2013-01-10    11   
## # ... with 1,565 more rows
…
##         date  meantemp
## 1 2013-01-01 10.000000
## 2 2013-01-02  7.400000
## 3 2013-01-03  7.166667
## 4 2013-01-04  8.666667
## 5 2013-01-05  6.000000
## 6 2013-01-06  7.000000

temp_test_ts<- as_tsibble(temp_test, index = date)

temp_test_ts

## # A tsibble: 114 x 2 [1D]
##    date       meantemp
##    <date>        <dbl>
##  1 2017-01-01     15.9
##  2 2017-01-02     18.5
##  3 2017-01-03     17.1
##  4 2017-01-04     18.7
##  5 2017-01-05     18.4
##  6 2017-01-06     19.3
##  7 2017-01-07     14.7
##  8 2017-01-08     15.7
##  9 2017-01-09     14.6
## 10 2017-01-10     12.1
## # ... with 104 more rows
…
